[
  {
    "id": 64103,
    "name": "ProFit® Ergo Vertical Mouse",
    "family": "trackball",
    "topView": true,
    "sideView": true,
    "topButtons": [
      {
        "hoverIndex": 1,
        "mask": 1
      },
      {
        "hoverIndex": 6,
        "mask": 4
      },
      {
        "hoverIndex": 5,
        "mask": 2
      }
    ],
    "sideButtons": [
      {
        "hoverIndex": 1,
        "mask": 16
      },
      {
        "hoverIndex": 5,
        "mask": 8
      }
    ],
    "scrollWheel": true,
    "scrollDirImages": {
      "normal": "normal.png",
      "reverse": "reverse.png"
    },
    "connectionInterface": "usb",
    "tutor": {
      "usb": {
        "text": "Connect via Dongle",
        "slides": [
          {
            "image": "tutor_usb1.jpg",
            "hint": ""
          }
        ]
      }
    }
  },
  {
    "id": 32872,
    "name": "ProFit® Ergo Vertical Trackball",
    "family": "trackball",
    "topView": true,
    "sideView": true,
    "topButtons": [
      {
        "hoverIndex": 1,
        "mask": 1
      },
      {
        "hoverIndex": 2,
        "mask": 1073741824
      },
      {
        "hoverIndex": 3,
        "mask": 4
      },
      {
        "hoverIndex": 4,
        "mask": 2147483648
      },
      {
        "hoverIndex": 5,
        "mask": 2
      }
    ],
    "sideButtons": [
      {
        "hoverIndex": 1,
        "mask": 16
      },
      {
        "hoverIndex": 2,
        "mask": 64
      },
      {
        "hoverIndex": 4,
        "mask": 32
      },
      {
        "hoverIndex": 5,
        "mask": 8
      }
    ],
    "scrollWheel": true,
    "scrollDirImages": {
      "normal": "normal.png",
      "reverse": "reverse.png"
    },
    "connectionInterface": "bluetooth,usb",
    "tutor": {
      "usb": {
        "text": "Connect via Dongle",
        "slides": [
          {
            "image": "tutor_usb1.jpg",
            "hint": ""
          },
          {
            "image": "tutor_usb2.jpg",
            "hint": ""
          }
        ]
      },
      "bluetooth": {
        "text": "Connect via Bluetooth",
        "slides": [
          {
            "image": "tutor_ble1.jpg",
            "hint": ""
          },
          {
            "image": "tutor_ble2.jpg",
            "hint": ""
          },
          {
            "image": "tutor_ble3.jpg",
            "hint": ""
          }
        ]
      }
    }
  },
  {
    "id": 32859,
    "name": "ProFit® Ergo Wireless Mouse",
    "family": "trackball",
    "topView": true,
    "sideView": true,
    "topButtons": [
      {
        "hoverIndex": 1,
        "mask": 1
      },
      {
        "hoverIndex": 5,
        "mask": 2
      },
      {
        "hoverIndex": 6,
        "mask": 4
      }
    ],
    "sideButtons": [
      {
        "hoverIndex": 1,
        "mask": 16
      },
      {
        "hoverIndex": 5,
        "mask": 8
      }
    ],
    "scrollWheel": true,
    "scrollDirImages": {
      "normal": "normal.png",
      "reverse": "reverse.png"
    },
    "connectionInterface": "bluetooth,usb",
    "tutor": {
      "usb": {
        "text": "Connect via Dongle",
        "slides": [
          {
            "image": "tutor_usb1.jpg",
            "hint": ""
          },
          {
            "image": "tutor_usb2.jpg",
            "hint": ""
          }
        ]
      },
      "bluetooth": {
        "text": "Connect via Bluetooth",
        "slides": [
          {
            "image": "tutor_ble1.jpg",
            "hint": ""
          },
          {
            "image": "tutor_ble2.jpg",
            "hint": ""
          },
          {
            "image": "tutor_ble3.jpg",
            "hint": ""
          }
        ]
      }
    }
  },
  {
    "id": 2208,
    "name": "ProFit® Ergo Wired Mouse",
    "family": "trackball",
    "topView": true,
    "sideView": true,
    "topButtons": [
      {
        "hoverIndex": 1,
        "mask": 1
      },
      {
        "hoverIndex": 5,
        "mask": 2
      },
      {
        "hoverIndex": 6,
        "mask": 4
      }
    ],
    "sideButtons": [
      {
        "hoverIndex": 1,
        "mask": 16
      },
      {
        "hoverIndex": 5,
        "mask": 8
      }
    ],
    "scrollWheel": true,
    "scrollDirImages": {
      "normal": "normal.png",
      "reverse": "reverse.png"
    },
    "connectionInterface": "usb",
    "tutor": {
      "usb": {
        "text": "Connect via Cable",
        "slides": [
          {
            "image": "tutor_usb1.jpg",
            "hint": ""
          }
        ]
      }
    }
  },
  {
    "id": 32792,
    "name": "Expert Mouse® Wireless Trackball",
    "family": "trackball",
    "topView": true,
    "sideView": false,
    "topButtons": [
      {
        "hoverIndex": 1,
        "mask": 4
      },
      {
        "hoverIndex": 2,
        "mask": 1
      },
      {
        "hoverIndex": 3,
        "mask": 3
      },
      {
        "hoverIndex": 4,
        "mask": 2
      },
      {
        "hoverIndex": 5,
        "mask": 8
      },
      {
        "hoverIndex": 6,
        "mask": 12
      }
    ],
    "scrollWheel": true,
    "connectionInterface": "bluetooth,usb",
    "tutor": {
      "usb": {
        "text": "Connect via Dongle",
        "slides": [
          {
            "image": "tutor_usb1.jpg",
            "hint": ""
          },
          {
            "image": "tutor_usb2.jpg",
            "hint": ""
          },
          {
            "image": "tutor_usb3.jpg",
            "hint": ""
          }
        ]
      },
      "bluetooth": {
        "text": "Connect via Bluetooth",
        "slides": [
          {
            "image": "tutor_ble1.jpg",
            "hint": ""
          },
          {
            "image": "tutor_ble2.jpg",
            "hint": "Click the Bluetooth tray icon on your screen, then Add a Bluetooth Device"
          },
          {
            "image": "tutor_ble3.jpg",
            "hint": ""
          },
          {
            "image": "tutor_ble4.jpg",
            "hint": ""
          }
        ]
      }
    }
  },
  {
    "id": 32770,
    "name": "Orbit® Wireless Mobile Trackball",
    "family": "trackball",
    "topView": true,
    "sideView": false,
    "topButtons": [
      {
        "hoverIndex": 1,
        "mask": 1
      },
      {
        "hoverIndex": 5,
        "mask": 2
      },
      {
        "hoverIndex": 6,
        "mask": 3
      }
    ],
    "scrollWheel": true,
    "connectionInterface": "usb",
    "tutor": {
      "usb": {
        "text": "Connect via Dongle",
        "slides": [
          {
            "image": "tutor_usb1.jpg",
            "hint": ""
          }
        ]
      }
    }
  },
  {
    "id": 8257,
    "name": "SlimBlade™ Trackball",
    "family": "trackball",
    "topView": true,
    "sideView": false,
    "topButtons": [
      {
        "hoverIndex": 1,
        "mask": 4
      },
      {
        "hoverIndex": 2,
        "mask": 1
      },
      {
        "hoverIndex": 3,
        "mask": 3
      },
      {
        "hoverIndex": 4,
        "mask": 2
      },
      {
        "hoverIndex": 5,
        "mask": 8
      },
      {
        "hoverIndex": 6,
        "mask": 12
      }
    ],
    "scrollWheel": true,
    "connectionInterface": "usb",
    "tutor": {
      "usb": {
        "text": "Connect via Cable",
        "slides": [
          {
            "image": "tutor_usb1.jpg",
            "hint": ""
          }
        ]
      }
    }
  },
  {
    "id": 4130,
    "name": "Orbit® Optical Trackball",
    "family": "trackball",
    "topView": true,
    "sideView": false,
    "topButtons": [
      {
        "hoverIndex": 1,
        "mask": 1
      },
      {
        "hoverIndex": 5,
        "mask": 2
      },
      {
        "hoverIndex": 6,
        "mask": 3
      }
    ],
    "scrollWheel": false,
    "connectionInterface": "usb",
    "tutor": {
      "usb": {
        "text": "Connect via Cable",
        "slides": [
          {
            "image": "tutor_usb1.jpg",
            "hint": ""
          }
        ]
      }
    }
  },
  {
    "id": 4128,
    "name": "Expert Mouse® Wired Trackball",
    "family": "trackball",
    "topView": true,
    "sideView": false,
    "topButtons": [
      {
        "hoverIndex": 1,
        "mask": 4
      },
      {
        "hoverIndex": 2,
        "mask": 1
      },
      {
        "hoverIndex": 3,
        "mask": 3
      },
      {
        "hoverIndex": 4,
        "mask": 2
      },
      {
        "hoverIndex": 5,
        "mask": 8
      },
      {
        "hoverIndex": 6,
        "mask": 12
      }
    ],
    "scrollWheel": true,
    "connectionInterface": "usb",
    "tutor": {
      "usb": {
        "text": "Connect via Cable",
        "slides": [
          {
            "image": "tutor_usb1.jpg",
            "hint": ""
          }
        ]
      }
    }
  },
  {
    "id": 8264,
    "name": "Orbit® Trackball with Scroll Ring",
    "family": "trackball",
    "topView": true,
    "sideView": false,
    "topButtons": [
      {
        "hoverIndex": 1,
        "mask": 1
      },
      {
        "hoverIndex": 5,
        "mask": 2
      },
      {
        "hoverIndex": 6,
        "mask": 3
      }
    ],
    "scrollWheel": true,
    "connectionInterface": "usb",
    "tutor": {
      "usb": {
        "text": "Connect via Cable",
        "slides": [
          {
            "image": "tutor_usb1.jpg",
            "hint": ""
          }
        ]
      }
    }
  },
  {
    "id": 32934,
    "name": "Orbit® Wireless Trackball with Scroll Ring",
    "family": "trackball",
    "topView": true,
    "sideView": false,
    "topButtons": [
      {
        "hoverIndex": 1,
        "mask": 1
      },
      {
        "hoverIndex": 5,
        "mask": 2
      },
      {
        "hoverIndex": 6,
        "mask": 3
      }
    ],
    "scrollWheel": true,
    "connectionInterface": "bluetooth,usb",
    "tutor": {
      "usb": {
        "text": "Connect via Dongle",
        "slides": [
          {
            "image": "tutor_usb1.png",
            "hint": ""
          },
          {
            "image": "tutor_usb2.jpg",
            "hint": ""
          }
        ]
      },
      "bluetooth": {
        "text": "Connect via Bluetooth",
        "slides": [
          {
            "image": "tutor_ble1.jpg",
            "hint": ""
          },
          {
            "image": "tutor_ble2.jpg",
            "hint": "Click the Bluetooth tray icon on your screen, then Add a Bluetooth Device"
          },
          {
            "image": "tutor_ble3.jpg",
            "hint": ""
          }
        ]
      }
    }
  },
  {
    "id": 32891,
    "name": "Orbit® Fusion™ Wireless Trackball",
    "family": "trackball",
    "topView": true,
    "sideView": true,
    "topButtons": [
      {
        "hoverIndex": 5,
        "mask": 2
      }
    ],
    "sideButtons": [
      {
        "hoverIndex": 3,
        "mask": 1
      },
      {
        "hoverIndex": 6,
        "mask": 4
      },
      {
        "hoverIndex": 5,
        "mask": 8
      },
      {
        "hoverIndex": 1,
        "mask": 16
      }
    ],
    "scrollWheel": true,
    "scrollDirImages": {
      "normal": "normal.png",
      "reverse": "reverse.png"
    },
    "connectionInterface": "usb",
    "tutor": {
      "usb": {
        "text": "Connect via Dongle",
        "slides": [
          {
            "image": "tutor_usb1.jpg",
            "hint": ""
          },
          {
            "image": "tutor_usb2.jpg",
            "hint": ""
          }
        ]
      }
    }
  },
  {
    "id": 16642,
    "name": "ProFit® Left-Handed Ergo Wireless Mouse",
    "family": "trackball",
    "topView": true,
    "sideView": true,
    "topButtons": [
      {
        "hoverIndex": 5,
        "mask": 1
      },
      {
        "hoverIndex": 1,
        "mask": 2
      },
      {
        "hoverIndex": 6,
        "mask": 4
      }
    ],
    "sideButtons": [
      {
        "hoverIndex": 5,
        "mask": 16
      },
      {
        "hoverIndex": 1,
        "mask": 8
      }
    ],
    "scrollWheel": true,
    "scrollDirImages": {
      "normal": "normal.png",
      "reverse": "reverse.png"
    },
    "connectionInterface": "usb",
    "tutor": {
      "usb": {
        "text": "Connect via Dongle",
        "slides": [
          {
            "image": "tutor_usb1.jpg",
            "hint": ""
          }
        ]
      }
    }
  },
  {
    "id": 32925,
    "name": "ProFit® Ergo Vertical Wired Trackball",
    "family": "trackball",
    "topView": true,
    "sideView": true,
    "topButtons": [
      {
        "hoverIndex": 1,
        "mask": 1
      },
      {
        "hoverIndex": 2,
        "mask": 1073741824
      },
      {
        "hoverIndex": 3,
        "mask": 4
      },
      {
        "hoverIndex": 4,
        "mask": 2147483648
      },
      {
        "hoverIndex": 5,
        "mask": 2
      }
    ],
    "sideButtons": [
      {
        "hoverIndex": 1,
        "mask": 16
      },
      {
        "hoverIndex": 2,
        "mask": 64
      },
      {
        "hoverIndex": 4,
        "mask": 32
      },
      {
        "hoverIndex": 5,
        "mask": 8
      }
    ],
    "scrollWheel": true,
    "scrollDirImages": {
      "normal": "normal.png",
      "reverse": "reverse.png"
    },
    "connectionInterface": "usb",
    "tutor": {
      "usb": {
        "text": "Connect via Cable",
        "slides": [
          {
            "image": "tutor_usb1.jpg",
            "hint": ""
          }
        ]
      }
    }
  }
]
