<?xml version="1.0" encoding="utf-8"?>
<!-- Generator: Adobe Illustrator 16.0.0, SVG Export Plug-In . SVG Version: 6.00 Build 0)  -->
<!DOCTYPE svg PUBLIC "-//W3C//DTD SVG 1.1//EN" "http://www.w3.org/Graphics/SVG/1.1/DTD/svg11.dtd">
<svg version="1.1" id="linebox" xmlns="http://www.w3.org/2000/svg" xmlns:xlink="http://www.w3.org/1999/xlink" x="0px" y="0px"
	 width="50px" height="50px" viewBox="0 0 50 50" enable-background="new 0 0 50 50" xml:space="preserve">
<g id="line_3_">
	<path d="M21.742,21.707H1.702V1.667h20.04V21.707z M4.224,19.187h14.998V4.188H4.224V19.187z"/>
</g>
<polygon id="line_2_" points="28.366,32.747 28.366,48.298 48.265,48.298 48.265,28.401 33.092,28.401 "/>
<g id="line_1_">
	<path d="M48.298,21.707H28.259V1.667h20.039V21.707z M30.778,19.187h14.999V4.188H30.778V19.187z"/>
</g>
<g id="line">
	<path d="M21.742,48.333H1.702V28.292h20.04V48.333z M4.224,45.811h14.998V30.813H4.224V45.811z"/>
</g>
</svg>
