<?xml version="1.0" encoding="utf-8"?>
<!-- Generator: Adobe Illustrator 16.0.0, SVG Export Plug-In . SVG Version: 6.00 Build 0)  -->
<!DOCTYPE svg PUBLIC "-//W3C//DTD SVG 1.1//EN" "http://www.w3.org/Graphics/SVG/1.1/DTD/svg11.dtd">
<svg version="1.1" id="linebox" xmlns="http://www.w3.org/2000/svg" xmlns:xlink="http://www.w3.org/1999/xlink" x="0px" y="0px"
	 width="50px" height="50px" viewBox="0 0 50 50" enable-background="new 0 0 50 50" xml:space="preserve">
<path id="line" d="M40.474,49.943c-0.87,0-1.667-0.438-2.134-1.17l-8.588-13.469l-4.877,5.504c-0.635,0.719-1.662,1.02-2.584,0.756
	c-0.928-0.264-1.635-1.047-1.8-2L14.124,3.012C13.949,2.006,14.391,1,15.25,0.449c0.844-0.54,1.979-0.521,2.801,0.046l30.79,21.192
	c0.801,0.552,1.219,1.528,1.063,2.488s-0.861,1.755-1.796,2.026l-7.343,2.117l8.572,13.443c0.364,0.57,0.483,1.248,0.338,1.908
	c-0.143,0.646-0.547,1.225-1.109,1.584l-6.732,4.293C41.426,49.807,40.956,49.943,40.474,49.943z M30.074,31.211l10.351,16.234
	c0.03,0.049,0.065,0.023,0.077,0.018l6.732-4.293l0.018-0.078L36.9,26.859l10.521-3.035c0.021-0.006,0.037-0.023,0.04-0.045
	c0.004-0.022-0.006-0.044-0.023-0.057L16.647,2.532l-0.73-1.042l0.668,1.04c-0.02,0.013-0.03,0.035-0.026,0.059l6.367,36.554
	c0.004,0.021,0.02,0.039,0.041,0.045l0.058-0.018L30.074,31.211z"/>
</svg>
